{
  "name": "dsa-41-importer",
  "title": "DSA 4.1 Importer",
  "description": "DSA 4.1 Character Importer module",
  "author": "Schorsch",
  "authors": [
    {
      "name": "Schorsch",
      "discord": "dirk#6513"
    }
  ],
  "version": "0.1.3",
  "minimumCoreVersion": "10",
  "compatibleCoreVersion": "10",
  "esmodules": ["importer.js"],
  "languages": [
    {
      "lang": "de",
      "name": "Deutsch",
      "path": "lang/de.json"
    }
  ],
  "url": "https://gitlab.com/foundry-vtt-dsa/dsa-4.1-core/dsa-4.1-importer",
  "manifest": "https://gitlab.com/foundry-vtt-dsa/dsa-4.1-core/dsa-4.1-importer/-/raw/master/src/module.json",
  "download": "https://gitlab.com/foundry-vtt-dsa/dsa-4.1-core/dsa-4.1-importer/-/jobs/artifacts/v0.1.4/raw/dsa-41-importer.zip?job=deploy",
  "bugs": "https://gitlab.com/foundry-vtt-dsa/dsa-4.1-core/dsa-4.1-importer/-/issues",
  "readme": "https://gitlab.com/foundry-vtt-dsa/dsa-4.1-core/dsa-4.1-importer/-/blob/master/README.md",
  "changelog": "https://gitlab.com/foundry-vtt-dsa/dsa-4.1-core/dsa-4.1-importer/-/releases",
  "license": "https://gitlab.com/foundry-vtt-dsa/dsa-4.1-core/dsa-4.1-importer/-/blob/master/LICENSE.md"
}
